{
  "openapi": "3.0.0",
  "info": {
    "title": "VulnApp",
    "version": "1.0.0"
  },
  "servers": [
    {
      "url": "http://{{baseurl}}"
    }
  ],
  "paths": {
    "/": {
      "get": {
        "tags": [
          "default"
        ],
        "summary": "main",
        "responses": {
          "200": {
            "description": "Successful response",
            "content": {
              "application/json": {}
            }
          }
        }
      }
    },
    "/data/add": {
      "post": {
        "tags": [
          "default"
        ],
        "summary": "New Request",
        "requestBody": {
          "content": {
            "multipart/form-data": {
              "schema": {
                "type": "object",
                "properties": {
                  "coordinates": {
                    "type": "string",
                    "example": "testValue"
                  },
                  "code": {
                    "type": "integer",
                    "example": "101"
                  }
                }
              }
            }
          }
        },
        "responses": {
          "200": {
            "description": "Successful response",
            "content": {
              "application/json": {}
            }
          }
        }
      }
    },
    "/search": {
      "get": {
        "tags": [
          "default"
        ],
        "summary": "New Request",
        "parameters": [
          {
            "name": "code",
            "in": "query",
            "schema": {
              "type": "integer"
            },
            "example": "101"
          }
        ],
        "responses": {
          "200": {
            "description": "Successful response",
            "content": {
              "application/json": {}
            }
          }
        }
      }
    }
  }
}